{
  "code": 0,
  "result": {
      "page": 1,
      "page_size": 10,
      "total_count": 25,
      "page_count": 3,
      "item_list": [
          {
              "id": 1,
              "role_name": "财务专员",
              "status": 0,
              "authorize_user_name": "冯勇",
              "authorize_time": 1521270166000,
              "create_time": 1499305790000,
              "menus": [
                  "/home",
                  "/ui/buttons",
                  "/ui/modals",
                  "/ui/loadings",
                  "/ui/notification",
                  "/ui/messages",
                  "/ui/gallery",
                  "/ui/carousel"
              ]
          },
          {
              "id": 2,
              "role_name": "市场专员",
              "status": 0,
              "authorize_user_name": "史军",
              "authorize_time": 1521270166000,
              "create_time": 1499305790000,
              "menus": [
                  "/home",
                  "/ui/buttons",
                  "/ui/modals",
                  "/ui/loadings",
                  "/ui/notification",
                  "/ui/messages",
                  "/ui/tabs",
                  "/ui/gallery",
                  "/ui/carousel",
                  "/ui"
              ]
          },
          {
              "id": 3,
              "role_name": "管理人员",
              "status": 0,
              "authorize_user_name": "李明",
              "authorize_time": 1521270166000,
              "create_time": 1499305790000,
              "menus": [
                  "/home",
                  "/ui/buttons",
                  "/ui/modals",
                  "/ui/loadings",
                  "/ui/notification",
                  "/ui/messages",
                  "/ui/tabs",
                  "/ui/gallery",
                  "/ui/carousel",
                  "/ui"
              ]
          },
          {
              "id": 4,
              "role_name": "管理人员",
              "status": 0,
              "authorize_user_name": "蔡娜",
              "authorize_time": 1521270166000,
              "create_time": 1499305790000,
              "menus": [
                  "/home",
                  "/ui/buttons",
                  "/ui/modals",
                  "/ui/loadings",
                  "/ui/notification",
                  "/ui/messages",
                  "/ui/tabs",
                  "/ui/gallery",
                  "/ui/carousel",
                  "/ui"
              ]
          },
          {
              "id": 5,
              "role_name": "市场专员",
              "status": 0,
              "authorize_user_name": "张芳",
              "authorize_time": 1521270166000,
              "create_time": 1499305790000,
              "menus": [
                  "/home",
                  "/ui/buttons",
                  "/ui/modals",
                  "/ui/loadings",
                  "/ui/notification",
                  "/ui/messages",
                  "/ui/tabs",
                  "/ui/gallery",
                  "/ui/carousel",
                  "/ui"
              ]
          },
          {
              "id": 6,
              "role_name": "管理人员",
              "status": 0,
              "authorize_user_name": "方艳",
              "authorize_time": 1521270166000,
              "create_time": 1499305790000,
              "menus": [
                  "/home",
                  "/ui/buttons",
                  "/ui/modals",
                  "/ui/loadings",
                  "/ui/notification",
                  "/ui/messages",
                  "/ui/tabs",
                  "/ui/gallery",
                  "/ui/carousel",
                  "/ui"
              ]
          },
          {
              "id": 7,
              "role_name": "管理人员",
              "status": 0,
              "authorize_user_name": "冯明",
              "authorize_time": 1521270166000,
              "create_time": 1499305790000,
              "menus": [
                  "/home",
                  "/ui/buttons",
                  "/ui/modals",
                  "/ui/loadings",
                  "/ui/notification",
                  "/ui/messages",
                  "/ui/tabs",
                  "/ui/gallery",
                  "/ui/carousel",
                  "/ui"
              ]
          }
      ]
  }
}