{
  "code": "0",
  "result": {
      "page": 2,
      "page_size": 10,
      "total_count": 85,
      "page_count": 9,
      "item_list": [
          {
              "id": 2959165,
              "order_sn": "T180846110",
              "bike_sn": "800116090",
              "user_id": 908352,
              "user_name": "龙娟",
              "mobile": "16667316806",
              "distance": 2000,
              "total_time": 4000,
              "status": 1,
              "start_time": "2004-11-13 04:56:44",
              "end_time": "1984-02-18 00:14:31",
              "total_fee": 1000,
              "user_pay": 300
          },
          {
              "id": 29591652,
              "order_sn": "T180248502",
              "bike_sn": "800116090",
              "user_id": 908352,
              "user_name": "林军",
              "mobile": "16988012672",
              "distance": 2000,
              "total_time": 4000,
              "status": 1,
              "start_time": "1983-08-31 00:02:52",
              "end_time": "1983-12-24 16:28:49",
              "total_fee": 1000,
              "user_pay": 300
          },
          {
              "id": 29591653,
              "order_sn": "T180661225",
              "bike_sn": "800116090",
              "user_id": 908352,
              "user_name": "田霞",
              "mobile": "16615501813",
              "distance": 2000,
              "total_time": 4000,
              "status": 1,
              "start_time": "1997-09-29 22:12:04",
              "end_time": "1972-05-28 07:21:07",
              "total_fee": 1000,
              "user_pay": 300
          },
          {
              "id": 29591654,
              "order_sn": "T180867863",
              "bike_sn": "800116090",
              "user_id": 908352,
              "user_name": "蒋娟",
              "mobile": "12868045612",
              "distance": 2000,
              "total_time": 4000,
              "status": 1,
              "start_time": "2009-02-25 07:50:16",
              "end_time": "1980-08-28 15:57:35",
              "total_fee": 1000,
              "user_pay": 300
          },
          {
              "id": 29591655,
              "order_sn": "T180156128",
              "bike_sn": "800116090",
              "user_id": 908352,
              "user_name": "龚军",
              "mobile": "16766162297",
              "distance": 2000,
              "total_time": 4000,
              "status": 2,
              "start_time": "1983-10-16 06:32:26",
              "end_time": "1978-12-02 06:34:05",
              "total_fee": 1000,
              "user_pay": 300
          },
          {
              "id": 29591656,
              "order_sn": "T180757304",
              "bike_sn": "800116090",
              "user_id": 908352,
              "user_name": "赖杰",
              "mobile": "10528816679",
              "distance": 2000,
              "total_time": 4000,
              "status": 2,
              "start_time": "1994-10-16 18:45:13",
              "end_time": "1984-06-17 10:18:12",
              "total_fee": 1000,
              "user_pay": 300
          },
          {
              "id": 29591657,
              "order_sn": "T180747846",
              "bike_sn": "800116090",
              "user_id": 908352,
              "user_name": "孔强",
              "mobile": "12428851365",
              "distance": 2000,
              "total_time": 4000,
              "status": 2,
              "start_time": "1994-06-13 17:37:27",
              "end_time": "2004-06-24 22:10:51",
              "total_fee": 1000,
              "user_pay": 300
          },
          {
              "id": 29591658,
              "order_sn": "T180622384",
              "bike_sn": "800116090",
              "user_id": 908352,
              "user_name": "姚静",
              "mobile": "13317966848",
              "distance": 2000,
              "total_time": 4000,
              "status": 2,
              "start_time": "1971-02-28 12:46:26",
              "end_time": "1975-07-20 18:31:20",
              "total_fee": 1000,
              "user_pay": 300
          },
          {
              "id": 29591659,
              "order_sn": "T180673856",
              "bike_sn": "800116090",
              "user_id": 908352,
              "user_name": "朱敏",
              "mobile": "16591961536",
              "distance": 2000,
              "total_time": 4000,
              "status": 1,
              "start_time": "2004-11-30 06:59:17",
              "end_time": "1988-04-08 17:34:56",
              "total_fee": 1000,
              "user_pay": 300
          },
          {
              "id": 29591650,
              "order_sn": "T180831025",
              "bike_sn": "800116090",
              "user_id": 908352,
              "user_name": "王强",
              "mobile": "18699329577",
              "distance": 2000,
              "total_time": 4000,
              "status": 1,
              "start_time": "2018-07-09 22:28:33",
              "end_time": "1982-09-07 03:16:31",
              "total_fee": 1000,
              "user_pay": 300
          }
      ]
  }
}